{
  "code": 200,
  "error": null,
  "message": null,
  "data": {
    "limit": null,
    "offset": null,
    "sort": null,
    "order": null,
    "filters": [],
    "totalCount": 3,
    "count": 2,
    "list": [
      {
        "id": 7254,
        "name": "Service 7254",
        "status": "running"
      },
      {
        "id": 7256,
        "name": "Service 7256",
        "status": "stopped"
      }
    ]
  }
}
